{1:F01CRESCHZFAARS0012000123}{2:O9400900970503UBSWCHZHGXXX22221234569705030900U}{3:{108:BCITITMMA950906}}{4:
:20:S940652174920780
:25:AutoTest02
:28C:151/001
:60F:C220510USD2000,00
:61:220510D500,00S103190727GT00156528
:61:220510C1000,00S103subF7//I103RK26Jul09
:62F:C220510USD2500,00
:86:Information To Account owner1
-}