101 026015079 1210003592102251603B094101GS Bank USA, SLC Branc hCOMPANYX              GStest  
5220COMPANYX        PERSLOAN            9777782220CCDPAYROLL         2102250561202103091224629
622026015079109015832        0000020000517517         TOM   Simpson         S 1202103091224629
705RMR*IV*TESTAddenda RECORD                                                       00010000001
822000000200026015070000000000000000000200000123456789                         202103091224629
5220COMPANYX        PERSLOAN            9777782220CCDPAYROLL         2102250561202103091224629
622026015079109015832        0000050000517517         TOM   Simpson         S 1202103091224629
705RMR*IV*TESTAddenda RECORD                                                       00010000001
822000000200026015070000000000000000000500000123456789                         202103091224629
9000002000001000000040005203014000000000000000000070000                                       