{1:F01GSCRUS30XXXX0000000000}{2:O9000253190412CITIUS33XXXX00000000001904120253N}{4:
:20:O202652167910613
:21:G22130GT05573337
:25:DDAGSILUSD13
:32A:220510USD1000,00
:52A:/998888888
CITIUS33
:72:/IPI/TestREFData
-}