{1:F01GSCRUS30AXXX0026000360}{2:O9400154190622CITIUS30GXXX24207113641906220154N}{3:{108:90622APY54253U5A}}{4:
:20:940STMTPAGE00150
:25:998888889
:28C:818/150
:60M:D190712USD55,
:61:1907110621DD5,NTRFPG1AOR0000100150//PG1AOW0000100150
:86:GID 50691722918A01 BOOK REF 19172CT5Y2483000 CR BK ID 40616061 C
R BK GOLDMAN SACHS GRP.INC. DETAILS TRANSFER FROM GSGUS TO CIT61
BENEF 40616061 GOLDMAN SACHS GROUP, INC. ORM BK GOLDMAN SACHS
BANK USA FORMERLY INSTRUCT DATE 06/21/19 ADVICE TYPE SWIFT
:61:1907110621CD5,NTRFPG1AOR0000200150//PG1AOW0000200150
:86:GID 50691722918A01 BOOK REF 19172CT5Y2483000 CR BK ID 40616061 C
R BK GOLDMAN SACHS GRP.INC. DETAILS TRANSFER FROM GSGUS TO CIT61
BENEF 40616061 GOLDMAN SACHS GROUP, INC. ORM BK GOLDMAN SACHS
BANK USA FORMERLY INSTRUCT DATE 06/21/19 ADVICE TYPE SWIFT
:61:1907110621DD5,NTRFPG1AOR0000100150//PG1AOW0000100150
:86:GID 50691722918A01 BOOK REF 19172CT5Y2483000 CR BK ID 40616061 C
R BK GOLDMAN SACHS GRP.INC. DETAILS TRANSFER FROM GSGUS TO CIT61
BENEF 40616061 GOLDMAN SACHS GROUP, INC. ORM BK GOLDMAN SACHS
BANK USA FORMERLY INSTRUCT DATE 06/21/19 ADVICE TYPE SWIFT
:61:1907110621CD5,NTRFPG1AOR0000200150//PG1AOW0000200150
:86:GID 50691722918A01 BOOK REF 19172CT5Y2483000 CR BK ID 40616061 C
R BK GOLDMAN SACHS GRP.INC. DETAILS TRANSFER FROM GSGUS TO CIT61
BENEF 40616061 GOLDMAN SACHS GROUP, INC. ORM BK GOLDMAN SACHS
BANK USA FORMERLY INSTRUCT DATE 06/21/19 ADVICE TYPE SWIFT
:61:1907110621DD5,NTRFPG1AOR0000100150//PG1AOW0000100150
:86:GID 50691722918A01 BOOK REF 19172CT5Y2483000 CR BK ID 40616061 C
R BK GOLDMAN SACHS GRP.INC. DETAILS TRANSFER FROM GSGUS TO CIT61
BENEF 40616061 GOLDMAN SACHS GROUP, INC. ORM BK GOLDMAN SACHS
BANK USA FORMERLY INSTRUCT DATE 06/21/19 ADVICE TYPE SWIFT
:61:1907110621CD5,NTRFPG1AOR0000200150//PG1AOW0000200150
:86:GID 50691722918A01 BOOK REF 19172CT5Y2483000 CR BK ID 40616061 C
:62M:D190712USD55,
-}{5:{CHK:131A784DFDBC}}