{1:F01GSCRUS33AXXX0026000360}{2:O9400154190622CITIUS33CXXX24207113641906220154N}{3:{108:90622APY54253USA}}{4:
:20:S940652177678672
:25:998888889
:28C:0656/001
:60F:C220510USD10000,00
:61:220510D200,00NCOM19176GTSY001
:86:TEST PAGE
:61:220510D300,00NCOM19176GTSY002
:86:TEST PAGE
:62M:C220510USD9500,00
-}