101 026015079 1210003592103121603E094101GS Bank USA, SLC Branc hCOMPANYX              GStest  
5220COMPANYX        PERSLOAN            9777782220CTXPAYROLL         2103120701124085080000001
622026015079098765432        0000005010517517         4     Simpson         S 1124085080000001
705RMR*IV*TESTAddenda RECORD                                                       00010000001
705RMR*IV*TESTAddenda RECORD                                                       00010000001
705RMR*IV*TESTAddenda RECORD                                                       00010000001
705RMR*IV*TESTAddenda RECORD                                                       00010000001
822000000500026015070000000000000000000050100123456789                         124085080000001
9000001000001000000050002601507000000000000000000005010                                       