{1:F01GSILGB2LXXXX0000000000}{2:I103GSCRUS30XXXXN}{4:
:20:O103652093388562
:23B:CRED
:32A:220509USD500,
:33B:USD100,
:50K:/997777111
GOLDMAN SACHS + CO. LLC
200 WEST STREET
NEW YORK NEW YORK UNITED STATES
:53B:/DDAGSILUSD13
:57A:CITIUS33ABC
:59:/234567
CITI US
:70:/900080864
:71A:OUR
-}