{1:F01CRESCHZFAARS0012000123}{2:O9400900970503UBSWCHZHGXXX22221234569705030900U}{3:{108:BCITITMMA950906}}{4:
:20:S940649846845619
:25:NOSCITI01
:28C:152/001
:60F:C220413USD2000,00
:61:220413D600,00S103200821GT10593377
:62F:C220413USD1400,00
:86:Information To Account owner1
-}