{1:F01GSCRUS30XXXX0000000000}{2:O2020712090924CITIUS33AXXX18405353310909240812N}{4:
:20:I103651149597749
:21:SWIFT00000000238
:32A:220428USD1775,
:52A:CITIUS33XXX
:58A:/DDAGSILUSD13
MEBKUS33XXX
:72:/REJT/59
/AC04/fghhg
/MREF/G22118GT05974344
-}