{
    "paymentId":"XXXXXX",
    "requestId":"XXXXXX",
    "linkReferenceId":"XXXXX",
    "transactionDate":"2021-02-22T00:00:00Z",
    "nostroAccount":"EXTNOSCITI066",
    "originalPaymentFunction":"Customer Credit Transfer",
    "deploymentId":"VolPay-ABCDEFG",
    "additionalAttributes":{
        "methodOfPayment":"SWIFT_OUT",
        "isBatchPosting":false,
        "serviceCode":"INTERBANK",
        "paymentFunding":"CREDIT_FUNDED",
        "linkReferenceAmount":900
    },
    "movementRequests":[
        {
            "movementId":"XXXXX",
            "valueDate":"2022-04-08T00:00:00Z",
            "bankSettlementDate":"2022-04-08T00:00:00Z",
            "fundAvailableDate":"2021-02-22T00:00:00Z",
            "instructionType":"WIRE_OUT_CLI",
            "debitAccount":"FINDDAGSILUSD13",
            "creditAccount":"EXT3333333333",
            "amount":900,
            "currency":"USD"
        }
    ]
}