101 026015079 121000359{{yyMMdd}}1503D094101 GS Bank USA, SLC BranchCOMPANYX               GStest 
5225COMPANYX        PERSLOAN            9777782543CTXLOANPYMT        {{yyMMdd}}{{jdt}}1124085080000001
627026015079098765432        0000050000517517         7     Simpson         S 1124085080000001
705Payment Related Information 1 from Addenda for Remittance Information           00010001768
705Payment Related Information 1 from Addenda for Remittance Information           00010001768
705Payment Related Information 1 from Addenda for Remittance Information           00010001768
705Payment Related Information 1 from Addenda for Remittance Information           00010001768
705Payment Related Information 1 from Addenda for Remittance Information           00010001768
705Payment Related Information 1 from Addenda for Remittance Information           00010001768
705Payment Related Information 1 from Addenda for Remittance Information           00010001768
822500000800026015070000000500000000000000000123456789                         124085080000001
9000001000002000000080002601507000000050000000000000000                                       
9999999999999999999999999999999999999999999999999999999999999999999999999999999999999999999999