{
    "paymentId":"XXXXX",
    "requestId":"XXXXX",
    "linkReferenceId":"XXXXX",
    "transactionDate":"2021-02-23T00:00:00Z",
    "nostroAccount":"FINNOSCITIUS33USD13",
    "originalPaymentFunction":"Financial Institution Credit Transfer",
    "deploymentId":"VolPay-ABCDEFG",
    "additionalAttributes":{
        "methodOfPayment":"SWIFT_IN",
        "isBatchPosting":false,
        "serviceCode":"INTERBANK",
        "linkReferenceAmount":900
    },
    "movementRequests":[
        {
            "movementId":"XXXXX",
            "valueDate":"2021-02-23T00:00:00Z",
            "bankSettlementDate":"2021-02-23T00:00:00Z",
            "fundAvailableDate":"2021-02-23T00:00:00Z",
            "instructionType":"WIRE_IN_CLI",
            "debitAccount":"EXT4444444444",
            "creditAccount":"FINDDAGSILUSD13",
            "amount":900,
            "currency":"USD"
        }
    ]
}