{
    "paymentId":"GPB2116616872901",
    "requestId":"GVHBI00016872708",
    "linkReferenceId":"DGX21166016872801",
    "transactionDate":"2021-06-15T00:00:00Z",
    "nostroAccount":"EXTACHUSD8898587",
    "originalLocalInstrument":"CTX",
    "originalPaymentFunction":"Request for Payment",
    "deploymentId":"VolPay-A",
    "additionalAttributes":{
        "isBatchPosting":true,
        "serviceCode":"BULKPROCESSING",
        "linkReferenceAmount":300
    },
    "movementRequests":[
        {
            "movementId":"GEHI000016872802",
            "valueDate":"2021-06-15T00:00:00Z",
            "bankSettlementDate":"2021-06-15T00:00:00Z",
            "fundAvailableDate":"2021-06-15T00:00:00Z",
            "instructionType":"WIRE_IN_CLI",
            "debitAccount":"EXTUSD9999999",
            "creditAccount":"EXT112255446",
            "amount":300,
            "currency":"USD"
        }
    ]
}