101 026015079 69100019422042205331094101GOLDMAN SACHS BANK USA APPLICATION SUPERVISOR ADV FILE
5280FRB ACH                             22222     ADVACH ADVICE      2204221120691000130000001
684026015079               0000000100000260150700002DGGOLDMAN SACHS BANK USA000691000132030001
828000000100026015070000001000000000000000007896542315000000                   691000130000001
9000002000001000000030052030140000000100000000000000000000000000000000                        