101 026015079 1210003592205111503D094101 GS Bank USA, SLC BranchCOMPANYX               GStest 
5225COMPANYX        PERSLOAN            1777782220CCDLOANPYMT        2205111311124085080000001
627026015079098765432        0000100000517517         Marge Simpson         S 0124085080000001
822500000100026015070000001000000000000000000123456789                         124085080000001
9000001000001000000010002601507000000100000000000000000                                       
9999999999999999999999999999999999999999999999999999999999999999999999999999999999999999999999