{1:F01GSCRUS30XXXX0000000000}{2:O9400712090924CITIUS33AXXX18405353310909240812N}{3:{108:XY/T44961}{111:001}{121:eb6305c9-1f7f-49de-aed0-16487c27b42d}}{4:
:20:S940651483915781
:25:998888889
:28C:156/001
:60F:C220502USD2000,00
:61:220502C1000,00S103subF7//I103651483894377
:62F:C220502USD3000,00
:86:Information To Account owner1
-}