{1:F01GSILGB2LXXXX0000000000}{2:I103GSCRUS30XXXXN}{4:
:20:O103652168500290
:23B:CRED
:32A:220510USD1000,00
:33B:USD1000,00
:50K:/1234567
GOLDMANSACHS+CO.LLC
200WESTSTREET
NEWYORKNEWYORKUNITEDSTATE
:53B:DDAGSILUSD13
:57A:MEBKUS33
:59:/234567
CITIUS
:70:/900080864
:71A:SHA
:71F:USD100,00
:72:/BNF/ABCD
//1234
-}