{1:F01CRESCHZFAARS0012000123}{2:O9400900970503UBSWCHZHGXXX22221234569705030900U}{3:{108:BCITITMMA950906}}{4:
:20:S940651490966422
:25:998888889
:28C:151/001
:60F:C220502USD00,00
:61:220502C1200,00S103subF7//I103611146632266
:62F:C220501USD1200,00
:86:Information To Account owner1
-}