{1:F01GSCRUS30XXXX0000000000}{2:O2020712090924CITIUS33AXXX18405353310909240812N}{4:
:20:I103652093614847
:21:202TEST
:32A:220509USD298,00
:53D:/998888888
CITI US
:58D:/DDAGSILUSD13
GSIL
:72:/RETN/59
/AC04/fghhg
/MREF/200717GT11909478
/TREF/TRAN REF
/CHGS/USD7,
/TEXT/INCOMING RETN ON ACCEPTED
-}