{1:F01GSCRUS30XXXX1370847308}{2:O9100603180501CITIUS33XXXX68078832001805010603N}{3:{108:1850106033206000}}{4:
:20:I103652161452430
:21:12424875232
:25:998888888
:13D:1905230603+0100
:32A:220510USD120000,45
:50A:/3131312313
BLACUS33XXX
:52A:SINOHKHHXXX
:56A:LOYDGB2L
:72:AAAAAAA AAAAAAA AAAAAAA AAAAAAA AAA
AAAAAAA AAAAAAA AAAAAAA AAAAAAA AAA
AAAAAAA AAAAAAA AAAAAAA AAAAAAA AAA
AAAAAAA AAAAAAA AAAAAAA AAAAAAA AAA
AAAAAAA AAAAAAA AAAAAAA AAAAAAA AAA
AAAAAAA AAAAAAA AAAAAAA AAAAAAA AAA
-}{5:{CHK:C7B279592338}}