{1:F01GSCRUS30XXXX0000000000}{2:O9000253190412CITIUS33XXXX00000000001904120253N}{4:
:20:O202652169026756
:21:G22130GT05573628
:25:DDAGSILUSD13
:13D:1911211515+1300
:32A:220510USD1000,00
:52D:GS BANK
:72:/ACC/AAAAAAAAAAAAAAAAAAAAAAAAAAAAAA
//BBBBBBBBBBBBBBBBBBBBBBBBBBBBBBBBB
-}