101 026015079 1210003592205111503A094101 GS Bank USA, SLC BranchCOMPANYX               GStest 
5225COMPANYX        PERSLOAN            9777782220CCDLOANPYMT        2205111311124085080000001
627026015079109015832        0000020000517517         Marge Simpson         S 0124085080000001
822500000100026015070000000200000000000000000123456789                         124085080000001
5225COMPANYX        PERSLOAN            9777782220CCDLOANPYMT        2205111311124085080000001
627026015079109015832        0000050000517517         Marge Simpson         S 0124085080000001
822500000100026015070000000500000000000000000123456789                         124085080000001
9000002000001000000020005203014000000070000000000000000                                       
9999999999999999999999999999999999999999999999999999999999999999999999999999999999999999999999