{1:F01GOLDUS33XXXX0012000123}{2:O1991057170725CITIUS33XXXX26264938281807251757N}{3:{108:XY/T44961}{111:001}{121:eb6305c9-1f7f-49de-aed0-16487c27b42d}}{4:
:20:I202651146939075
:21:G22118GT05973365
:79:/TYPE/MRMTID
/STATUS/ACCEPTED/STATUS/ACCEPTED/STATUS/ACCEPTED/S
/REASONCODE/NA
/ADDITIONAL INFORMATION/Any additional information
/Remittance advice
-}