<?xml version="1.0" encoding="UTF-8"?>
<Document xmlns="urn:iso:std:iso:20022:tech:xsd:pain.008.001.08">
	<CstmrDrctDbtInitn>
		<GrpHdr>
			<MsgId>Outbound-DD_IAT</MsgId>
			<CreDtTm>2020-09-17T13:10:29.633</CreDtTm>
			<NbOfTxs>4</NbOfTxs>
			<CtrlSum>1600</CtrlSum>
			<InitgPty>
				<Nm>ACH Test</Nm> <!-- Immediate_Origin Name -->
				<Id>
					<OrgId>
						<AnyBIC>GSCRUS30XXX</AnyBIC>
						<Othr>
							<Id>ACH</Id> <!-- Immediate_Origin -->
							<SchmeNm>
								<Cd>CUST</Cd>
							</SchmeNm>
						</Othr>
					</OrgId>
				</Id>
			</InitgPty>
		</GrpHdr>
		<PmtInf>
			<PmtInfId>IATDD01-VD-11</PmtInfId>
			<PmtMtd>DD</PmtMtd>
			<NbOfTxs>4</NbOfTxs>
			<CtrlSum>1600</CtrlSum>
			<PmtTpInf>
					<InstrPrty>NORM</InstrPrty> <!-- Optional -->
					<SvcLvl>
						<Cd>NURG</Cd>
					</SvcLvl>
					<LclInstrm>
						<Cd>IAT</Cd>
					</LclInstrm>
					<CtgyPurp>
					<Prtry>EMI</Prtry>
				</CtgyPurp>
				</PmtTpInf>
			<ReqdColltnDt>2022-05-04</ReqdColltnDt>
			<Cdtr> 
			<Nm>Microsofts</Nm>
				<Id>
					<OrgId>
						<Othr>
							<Id>8529631475</Id>
						</Othr>
					</OrgId>
				</Id>
			</Cdtr>
			<CdtrAcct>
				<Id>
					<Othr>
						<Id>112255446</Id>
					</Othr>
				</Id>
				<Tp>
					<Cd>CACC</Cd>
				</Tp>
			</CdtrAcct>
			<CdtrAgt>
				<FinInstnId>
					<ClrSysMmbId>   <!-- Payer's Bank Identification  -->
						<ClrSysId>
							<Cd>USABA</Cd>
						</ClrSysId>
						<MmbId>026015079</MmbId>   <!--Originating DFI ABA or transit routing number-->
					</ClrSysMmbId>
				</FinInstnId>
			</CdtrAgt>
			<DrctDbtTxInf>
				<PmtId>
					<EndToEndId>000099881</EndToEndId>
				</PmtId>
				<InstdAmt Ccy="USD">250</InstdAmt>
				<DbtrAgt>
					<FinInstnId>
						<ClrSysMmbId>
							<ClrSysId>
								<Cd>USABA</Cd>

							</ClrSysId>
							<MmbId>061212510</MmbId>
						</ClrSysMmbId>
						<Nm>The finest federal credit union </Nm>
					</FinInstnId>
				</DbtrAgt>
				<Dbtr>
					<Nm>RK company</Nm>
				</Dbtr>
				<DbtrAcct>
					<Id>
						<Othr>
							<Id>123456</Id>
						</Othr>
					</Id>
					<Tp>
						<Cd>CACC</Cd>
					</Tp>
					<Nm>RK</Nm>
				</DbtrAcct>
				<RmtInf>
					<Ustrd>Payment Related Information 1 from Addenda for Remittance Information</Ustrd>
					<Ustrd>Payment Related Information 2 from Addenda for Remittance Information</Ustrd>
				</RmtInf>
				<SplmtryData>
						<PlcAndNm>Foreign_Exchange_Indicator</PlcAndNm>
						<Envlp>
							<any>FV</any>
						</Envlp>
					</SplmtryData>
					<SplmtryData>
						<PlcAndNm>Foreign_Exchange_Reference_Indicator</PlcAndNm>
						<Envlp>
							<any>1</any>
						</Envlp>
					</SplmtryData>
					<SplmtryData>
						<PlcAndNm>Foreign_Exchange_Reference</PlcAndNm>
						<Envlp>
							<any>30.2</any>
						</Envlp>
					</SplmtryData>
					<SplmtryData>
						<PlcAndNm>ISO_Destination_Country_Code</PlcAndNm>
						<Envlp>
							<any>MY</any>
						</Envlp>
					</SplmtryData>
					<SplmtryData>
						<PlcAndNm>ISO_Originating_Currency_Code</PlcAndNm>
						<Envlp>
							<any>USD</any>
						</Envlp>
					</SplmtryData>
					<SplmtryData>
						<PlcAndNm>ISO_Destination_Currency_Code</PlcAndNm>
						<Envlp>
							<any>MYR</any>
						</Envlp>
					</SplmtryData>
					<SplmtryData>
						<PlcAndNm>Secondary_OFAC_Screening_Indicator</PlcAndNm>
						<Envlp>
							<any>0</any>
						</Envlp>
					</SplmtryData>
					<SplmtryData>
						<PlcAndNm>IAT</PlcAndNm>
						<Envlp>
						<any>
					<![CDATA[<?xml version="1.0" encoding="UTF-8"?>
					<First_Addenda>
						<Record_Type_Code>7</Record_Type_Code>
						<Addenda_Type_Code>10</Addenda_Type_Code>
						<Transaction_Type_Code>ANN</Transaction_Type_Code>
						<Foreign_Payment_Amount>90600.0</Foreign_Payment_Amount>
						<Foreign_Trace_Number>1234567</Foreign_Trace_Number>
						<Receiving_Company_Name___Individual_Name>RAWAL SHIPPINGS</Receiving_Company_Name___Individual_Name>
						<Entry_Detail_Sequence_Number>106443</Entry_Detail_Sequence_Number>
					</First_Addenda>
					<Second_Addenda>
						<Record_Type_Code>7</Record_Type_Code>
						<Addenda_Type_Code>11</Addenda_Type_Code>
						<Originator_Name>Microsoft</Originator_Name>
						<Originator_Street_Address>RANA PRATAPSINHJI MARG STREET</Originator_Street_Address>
						<Entry_Detail_Sequence_Number>106443</Entry_Detail_Sequence_Number>
					</Second_Addenda>
					<Third_Addenda>
						<Record_Type_Code>7</Record_Type_Code>
						<Addenda_Type_Code>12</Addenda_Type_Code>
						<Originator_City___State___Province>Redmond*980526399\</Originator_City___State___Province>
						<Originator_Country___Postal_Code>USA*980526399\</Originator_Country___Postal_Code>
						<Entry_Detail_Sequence_Number>106443</Entry_Detail_Sequence_Number>
					</Third_Addenda>
					<Fourth_Addenda>
						<Record_Type_Code>7</Record_Type_Code>
						<Addenda_Type_Code>13</Addenda_Type_Code>
						<Originating_DFI_Name>Microsoft Corporation</Originating_DFI_Name>
						<Originating_DFI_Identification_Number_Qualifier>01</Originating_DFI_Identification_Number_Qualifier>
						<Originating_DFI_Identification>8529631475</Originating_DFI_Identification>
						<Originating_DFI_Branch_Country_Code>US</Originating_DFI_Branch_Country_Code>
						<Entry_Detail_Sequence_Number>106443</Entry_Detail_Sequence_Number>
					</Fourth_Addenda>
					<Fifth_Addenda>
						<Record_Type_Code>7</Record_Type_Code>
						<Addenda_Type_Code>14</Addenda_Type_Code>
						<Receiving_DFI_Name>MAY Bank</Receiving_DFI_Name>
						<Receiving_DFI_Identification_Number_Qualifier>01</Receiving_DFI_Identification_Number_Qualifier>
						<Receiving_DFI_Identification>9898989898</Receiving_DFI_Identification>
						<Receiving_DFI_Branch_Country_Code>MY</Receiving_DFI_Branch_Country_Code>
						<Entry_Detail_Sequence_Number>106443</Entry_Detail_Sequence_Number>
					</Fifth_Addenda>
					<Sixth_Addenda>
						<Record_Type_Code>7</Record_Type_Code>
						<Addenda_Type_Code>15</Addenda_Type_Code>
						<Receiver_Identification_Number>MY</Receiver_Identification_Number>
						<Receiver_Street_Address>MY</Receiver_Street_Address>
						<Entry_Detail_Sequence_Number>106443</Entry_Detail_Sequence_Number>
					</Sixth_Addenda>
					<Seventh_Addenda>
						<Record_Type_Code>7</Record_Type_Code>
						<Addenda_Type_Code>16</Addenda_Type_Code>
						<Receiver_City___State___Province>MY</Receiver_City___State___Province>
						<Receiver_Country___Postal_Code>MY</Receiver_Country___Postal_Code>
						<Entry_Detail_Sequence_Number>106443</Entry_Detail_Sequence_Number>
					</Seventh_Addenda>
					<Addenda_for_Remittance_Information>
						<Record_Type_Code>7</Record_Type_Code>
						<Addenda_Type_Code>17</Addenda_Type_Code>
						<Payment_Related_Information>This is a forign payment through IAT</Payment_Related_Information>
						<Addenda_Sequence_Number>1</Addenda_Sequence_Number>
						<Entry_Detail_Sequence_Number>106443</Entry_Detail_Sequence_Number>
					</Addenda_for_Remittance_Information>
					<Addenda_for_Remittance_Information>
						<Record_Type_Code>7</Record_Type_Code>
						<Addenda_Type_Code>17</Addenda_Type_Code>
						<Payment_Related_Information>For reducing a cost</Payment_Related_Information>
						<Addenda_Sequence_Number>2</Addenda_Sequence_Number>
						<Entry_Detail_Sequence_Number>106443</Entry_Detail_Sequence_Number>
					</Addenda_for_Remittance_Information>
					<Addenda_for_Foreign_Correspondent_Bank_Information>
						<Record_Type_Code>7</Record_Type_Code>
						<Addenda_Type_Code>18</Addenda_Type_Code>
						<Foreign_Correspondent_Bank_Name>MAYBANK</Foreign_Correspondent_Bank_Name>	<Foreign_Correspondent_Bank_Identification_Number_Qualifier>02</Foreign_Correspondent_Bank_Identification_Number_Qualifier>	<Foreign_Correspondent_Bank_Identification_Number>MBBEMYKLXXX</Foreign_Correspondent_Bank_Identification_Number>
						<Foreign_Correspondent_Bank_Branch_Country_Code>MY</Foreign_Correspondent_Bank_Branch_Country_Code>
						<Addenda_Sequence_Number>1</Addenda_Sequence_Number>
						<Entry_Detail_Sequence_Number>106443</Entry_Detail_Sequence_Number>
					</Addenda_for_Foreign_Correspondent_Bank_Information>
					<Addenda_for_Foreign_Correspondent_Bank_Information>
						<Record_Type_Code>7</Record_Type_Code>
						<Addenda_Type_Code>18</Addenda_Type_Code>
						<Foreign_Correspondent_Bank_Name>STANDARD CHARTERED BANK MALAYSIA</Foreign_Correspondent_Bank_Name>	<Foreign_Correspondent_Bank_Identification_Number_Qualifier>02</Foreign_Correspondent_Bank_Identification_Number_Qualifier>	<Foreign_Correspondent_Bank_Identification_Number>SCBLMYKXXXX</Foreign_Correspondent_Bank_Identification_Number>
						<Foreign_Correspondent_Bank_Branch_Country_Code>MY</Foreign_Correspondent_Bank_Branch_Country_Code>
						<Addenda_Sequence_Number>2</Addenda_Sequence_Number>
						<Entry_Detail_Sequence_Number>106443</Entry_Detail_Sequence_Number>
					</Addenda_for_Foreign_Correspondent_Bank_Information>]]>
					</any>
						</Envlp>
					</SplmtryData>
			</DrctDbtTxInf>
			
			<DrctDbtTxInf>
				<PmtId>
					<EndToEndId>000099881</EndToEndId>
				</PmtId>
				<InstdAmt Ccy="USD">350</InstdAmt>
				<DbtrAgt>
					<FinInstnId>
						<ClrSysMmbId>
							<ClrSysId>
								<Cd>USABA</Cd>

							</ClrSysId>
							<MmbId>031316967</MmbId>
						</ClrSysMmbId>
						<Nm>The finest federal credit union </Nm>
					</FinInstnId>
				</DbtrAgt>
				<Dbtr>
					<Nm>RK company</Nm>
				</Dbtr>
				<DbtrAcct>
					<Id>
						<Othr>
							<Id>123456</Id>
						</Othr>
					</Id>
					<Tp>
						<Cd>CACC</Cd>
					</Tp>
					<Nm>RK</Nm>
				</DbtrAcct>
				<RmtInf>
					<Ustrd>Payment Related Information 1 from Addenda for Remittance Information</Ustrd>
					<Ustrd>Payment Related Information 2 from Addenda for Remittance Information</Ustrd>
				</RmtInf>
				<SplmtryData>
						<PlcAndNm>Foreign_Exchange_Indicator</PlcAndNm>
						<Envlp>
							<any>FV</any>
						</Envlp>
					</SplmtryData>
					<SplmtryData>
						<PlcAndNm>Foreign_Exchange_Reference_Indicator</PlcAndNm>
						<Envlp>
							<any>1</any>
						</Envlp>
					</SplmtryData>
					<SplmtryData>
						<PlcAndNm>Foreign_Exchange_Reference</PlcAndNm>
						<Envlp>
							<any>30.2</any>
						</Envlp>
					</SplmtryData>
					<SplmtryData>
						<PlcAndNm>ISO_Destination_Country_Code</PlcAndNm>
						<Envlp>
							<any>MY</any>
						</Envlp>
					</SplmtryData>
					<SplmtryData>
						<PlcAndNm>ISO_Originating_Currency_Code</PlcAndNm>
						<Envlp>
							<any>USD</any>
						</Envlp>
					</SplmtryData>
					<SplmtryData>
						<PlcAndNm>ISO_Destination_Currency_Code</PlcAndNm>
						<Envlp>
							<any>MYR</any>
						</Envlp>
					</SplmtryData>
					<SplmtryData>
						<PlcAndNm>Secondary_OFAC_Screening_Indicator</PlcAndNm>
						<Envlp>
							<any>0</any>
						</Envlp>
					</SplmtryData>
					<SplmtryData>
						<PlcAndNm>IAT</PlcAndNm>
						<Envlp>
						<any>
					<![CDATA[<?xml version="1.0" encoding="UTF-8"?>
					<First_Addenda>
						<Record_Type_Code>7</Record_Type_Code>
						<Addenda_Type_Code>10</Addenda_Type_Code>
						<Transaction_Type_Code>ANN</Transaction_Type_Code>
						<Foreign_Payment_Amount>90600.0</Foreign_Payment_Amount>
						<Foreign_Trace_Number>1234567</Foreign_Trace_Number>
						<Receiving_Company_Name___Individual_Name>RAWAL SHIPPINGS</Receiving_Company_Name___Individual_Name>
						<Entry_Detail_Sequence_Number>106443</Entry_Detail_Sequence_Number>
					</First_Addenda>
					<Second_Addenda>
						<Record_Type_Code>7</Record_Type_Code>
						<Addenda_Type_Code>11</Addenda_Type_Code>
						<Originator_Name>Microsoft</Originator_Name>
						<Originator_Street_Address>RANA PRATAPSINHJI MARG STREET</Originator_Street_Address>
						<Entry_Detail_Sequence_Number>106443</Entry_Detail_Sequence_Number>
					</Second_Addenda>
					<Third_Addenda>
						<Record_Type_Code>7</Record_Type_Code>
						<Addenda_Type_Code>12</Addenda_Type_Code>
						<Originator_City___State___Province>Redmond*980526399\</Originator_City___State___Province>
						<Originator_Country___Postal_Code>USA*980526399\</Originator_Country___Postal_Code>
						<Entry_Detail_Sequence_Number>106443</Entry_Detail_Sequence_Number>
					</Third_Addenda>
					<Fourth_Addenda>
						<Record_Type_Code>7</Record_Type_Code>
						<Addenda_Type_Code>13</Addenda_Type_Code>
						<Originating_DFI_Name>Microsoft Corporation</Originating_DFI_Name>
						<Originating_DFI_Identification_Number_Qualifier>01</Originating_DFI_Identification_Number_Qualifier>
						<Originating_DFI_Identification>8529631475</Originating_DFI_Identification>
						<Originating_DFI_Branch_Country_Code>US</Originating_DFI_Branch_Country_Code>
						<Entry_Detail_Sequence_Number>106443</Entry_Detail_Sequence_Number>
					</Fourth_Addenda>
					<Fifth_Addenda>
						<Record_Type_Code>7</Record_Type_Code>
						<Addenda_Type_Code>14</Addenda_Type_Code>
						<Receiving_DFI_Name>MAY Bank</Receiving_DFI_Name>
						<Receiving_DFI_Identification_Number_Qualifier>01</Receiving_DFI_Identification_Number_Qualifier>
						<Receiving_DFI_Identification>9898989898</Receiving_DFI_Identification>
						<Receiving_DFI_Branch_Country_Code>MY</Receiving_DFI_Branch_Country_Code>
						<Entry_Detail_Sequence_Number>106443</Entry_Detail_Sequence_Number>
					</Fifth_Addenda>
					<Sixth_Addenda>
						<Record_Type_Code>7</Record_Type_Code>
						<Addenda_Type_Code>15</Addenda_Type_Code>
						<Receiver_Identification_Number>MY</Receiver_Identification_Number>
						<Receiver_Street_Address>MY</Receiver_Street_Address>
						<Entry_Detail_Sequence_Number>106443</Entry_Detail_Sequence_Number>
					</Sixth_Addenda>
					<Seventh_Addenda>
						<Record_Type_Code>7</Record_Type_Code>
						<Addenda_Type_Code>16</Addenda_Type_Code>
						<Receiver_City___State___Province>MY</Receiver_City___State___Province>
						<Receiver_Country___Postal_Code>MY</Receiver_Country___Postal_Code>
						<Entry_Detail_Sequence_Number>106443</Entry_Detail_Sequence_Number>
					</Seventh_Addenda>
					<Addenda_for_Remittance_Information>
						<Record_Type_Code>7</Record_Type_Code>
						<Addenda_Type_Code>17</Addenda_Type_Code>
						<Payment_Related_Information>This is a forign payment through IAT</Payment_Related_Information>
						<Addenda_Sequence_Number>1</Addenda_Sequence_Number>
						<Entry_Detail_Sequence_Number>106443</Entry_Detail_Sequence_Number>
					</Addenda_for_Remittance_Information>
					<Addenda_for_Remittance_Information>
						<Record_Type_Code>7</Record_Type_Code>
						<Addenda_Type_Code>17</Addenda_Type_Code>
						<Payment_Related_Information>For reducing a cost</Payment_Related_Information>
						<Addenda_Sequence_Number>2</Addenda_Sequence_Number>
						<Entry_Detail_Sequence_Number>106443</Entry_Detail_Sequence_Number>
					</Addenda_for_Remittance_Information>
					<Addenda_for_Foreign_Correspondent_Bank_Information>
						<Record_Type_Code>7</Record_Type_Code>
						<Addenda_Type_Code>18</Addenda_Type_Code>
						<Foreign_Correspondent_Bank_Name>MAYBANK</Foreign_Correspondent_Bank_Name>	<Foreign_Correspondent_Bank_Identification_Number_Qualifier>02</Foreign_Correspondent_Bank_Identification_Number_Qualifier>	<Foreign_Correspondent_Bank_Identification_Number>MBBEMYKLXXX</Foreign_Correspondent_Bank_Identification_Number>
						<Foreign_Correspondent_Bank_Branch_Country_Code>MY</Foreign_Correspondent_Bank_Branch_Country_Code>
						<Addenda_Sequence_Number>1</Addenda_Sequence_Number>
						<Entry_Detail_Sequence_Number>106443</Entry_Detail_Sequence_Number>
					</Addenda_for_Foreign_Correspondent_Bank_Information>
					<Addenda_for_Foreign_Correspondent_Bank_Information>
						<Record_Type_Code>7</Record_Type_Code>
						<Addenda_Type_Code>18</Addenda_Type_Code>
						<Foreign_Correspondent_Bank_Name>STANDARD CHARTERED BANK MALAYSIA</Foreign_Correspondent_Bank_Name>	<Foreign_Correspondent_Bank_Identification_Number_Qualifier>02</Foreign_Correspondent_Bank_Identification_Number_Qualifier>	<Foreign_Correspondent_Bank_Identification_Number>SCBLMYKXXXX</Foreign_Correspondent_Bank_Identification_Number>
						<Foreign_Correspondent_Bank_Branch_Country_Code>MY</Foreign_Correspondent_Bank_Branch_Country_Code>
						<Addenda_Sequence_Number>2</Addenda_Sequence_Number>
						<Entry_Detail_Sequence_Number>106443</Entry_Detail_Sequence_Number>
					</Addenda_for_Foreign_Correspondent_Bank_Information>]]>
					</any>
						</Envlp>
					</SplmtryData>
			</DrctDbtTxInf>
			
			<DrctDbtTxInf>
				<PmtId>
					<EndToEndId>000099881</EndToEndId>
				</PmtId>
				<InstdAmt Ccy="USD">450</InstdAmt>
				<DbtrAgt>
					<FinInstnId>
						<ClrSysMmbId>
							<ClrSysId>
								<Cd>USABA</Cd>

							</ClrSysId>
							<MmbId>031316271</MmbId>
						</ClrSysMmbId>
						<Nm>The finest federal credit union </Nm>
					</FinInstnId>
				</DbtrAgt>
				<Dbtr>
					<Nm>RK company</Nm>
				</Dbtr>
				<DbtrAcct>
					<Id>
						<Othr>
							<Id>123456</Id>
						</Othr>
					</Id>
					<Tp>
						<Cd>CACC</Cd>
					</Tp>
					<Nm>RK</Nm>
				</DbtrAcct>
				<RmtInf>
					<Ustrd>Payment Related Information 1 from Addenda for Remittance Information</Ustrd>
					<Ustrd>Payment Related Information 2 from Addenda for Remittance Information</Ustrd>
				</RmtInf>
				<SplmtryData>
						<PlcAndNm>Foreign_Exchange_Indicator</PlcAndNm>
						<Envlp>
							<any>FV</any>
						</Envlp>
					</SplmtryData>
					<SplmtryData>
						<PlcAndNm>Foreign_Exchange_Reference_Indicator</PlcAndNm>
						<Envlp>
							<any>1</any>
						</Envlp>
					</SplmtryData>
					<SplmtryData>
						<PlcAndNm>Foreign_Exchange_Reference</PlcAndNm>
						<Envlp>
							<any>30.2</any>
						</Envlp>
					</SplmtryData>
					<SplmtryData>
						<PlcAndNm>ISO_Destination_Country_Code</PlcAndNm>
						<Envlp>
							<any>MY</any>
						</Envlp>
					</SplmtryData>
					<SplmtryData>
						<PlcAndNm>ISO_Originating_Currency_Code</PlcAndNm>
						<Envlp>
							<any>USD</any>
						</Envlp>
					</SplmtryData>
					<SplmtryData>
						<PlcAndNm>ISO_Destination_Currency_Code</PlcAndNm>
						<Envlp>
							<any>MYR</any>
						</Envlp>
					</SplmtryData>
					<SplmtryData>
						<PlcAndNm>Secondary_OFAC_Screening_Indicator</PlcAndNm>
						<Envlp>
							<any>0</any>
						</Envlp>
					</SplmtryData>
					<SplmtryData>
						<PlcAndNm>IAT</PlcAndNm>
						<Envlp>
						<any>
					<![CDATA[<?xml version="1.0" encoding="UTF-8"?>
					<First_Addenda>
						<Record_Type_Code>7</Record_Type_Code>
						<Addenda_Type_Code>10</Addenda_Type_Code>
						<Transaction_Type_Code>ANN</Transaction_Type_Code>
						<Foreign_Payment_Amount>90600.0</Foreign_Payment_Amount>
						<Foreign_Trace_Number>1234567</Foreign_Trace_Number>
						<Receiving_Company_Name___Individual_Name>RAWAL SHIPPINGS</Receiving_Company_Name___Individual_Name>
						<Entry_Detail_Sequence_Number>106443</Entry_Detail_Sequence_Number>
					</First_Addenda>
					<Second_Addenda>
						<Record_Type_Code>7</Record_Type_Code>
						<Addenda_Type_Code>11</Addenda_Type_Code>
						<Originator_Name>Microsoft</Originator_Name>
						<Originator_Street_Address>RANA PRATAPSINHJI MARG STREET</Originator_Street_Address>
						<Entry_Detail_Sequence_Number>106443</Entry_Detail_Sequence_Number>
					</Second_Addenda>
					<Third_Addenda>
						<Record_Type_Code>7</Record_Type_Code>
						<Addenda_Type_Code>12</Addenda_Type_Code>
						<Originator_City___State___Province>Redmond*980526399\</Originator_City___State___Province>
						<Originator_Country___Postal_Code>USA*980526399\</Originator_Country___Postal_Code>
						<Entry_Detail_Sequence_Number>106443</Entry_Detail_Sequence_Number>
					</Third_Addenda>
					<Fourth_Addenda>
						<Record_Type_Code>7</Record_Type_Code>
						<Addenda_Type_Code>13</Addenda_Type_Code>
						<Originating_DFI_Name>Microsoft Corporation</Originating_DFI_Name>
						<Originating_DFI_Identification_Number_Qualifier>01</Originating_DFI_Identification_Number_Qualifier>
						<Originating_DFI_Identification>8529631475</Originating_DFI_Identification>
						<Originating_DFI_Branch_Country_Code>US</Originating_DFI_Branch_Country_Code>
						<Entry_Detail_Sequence_Number>106443</Entry_Detail_Sequence_Number>
					</Fourth_Addenda>
					<Fifth_Addenda>
						<Record_Type_Code>7</Record_Type_Code>
						<Addenda_Type_Code>14</Addenda_Type_Code>
						<Receiving_DFI_Name>MAY Bank</Receiving_DFI_Name>
						<Receiving_DFI_Identification_Number_Qualifier>01</Receiving_DFI_Identification_Number_Qualifier>
						<Receiving_DFI_Identification>9898989898</Receiving_DFI_Identification>
						<Receiving_DFI_Branch_Country_Code>MY</Receiving_DFI_Branch_Country_Code>
						<Entry_Detail_Sequence_Number>106443</Entry_Detail_Sequence_Number>
					</Fifth_Addenda>
					<Sixth_Addenda>
						<Record_Type_Code>7</Record_Type_Code>
						<Addenda_Type_Code>15</Addenda_Type_Code>
						<Receiver_Identification_Number>MY</Receiver_Identification_Number>
						<Receiver_Street_Address>MY</Receiver_Street_Address>
						<Entry_Detail_Sequence_Number>106443</Entry_Detail_Sequence_Number>
					</Sixth_Addenda>
					<Seventh_Addenda>
						<Record_Type_Code>7</Record_Type_Code>
						<Addenda_Type_Code>16</Addenda_Type_Code>
						<Receiver_City___State___Province>MY</Receiver_City___State___Province>
						<Receiver_Country___Postal_Code>MY</Receiver_Country___Postal_Code>
						<Entry_Detail_Sequence_Number>106443</Entry_Detail_Sequence_Number>
					</Seventh_Addenda>
					<Addenda_for_Remittance_Information>
						<Record_Type_Code>7</Record_Type_Code>
						<Addenda_Type_Code>17</Addenda_Type_Code>
						<Payment_Related_Information>This is a forign payment through IAT</Payment_Related_Information>
						<Addenda_Sequence_Number>1</Addenda_Sequence_Number>
						<Entry_Detail_Sequence_Number>106443</Entry_Detail_Sequence_Number>
					</Addenda_for_Remittance_Information>
					<Addenda_for_Remittance_Information>
						<Record_Type_Code>7</Record_Type_Code>
						<Addenda_Type_Code>17</Addenda_Type_Code>
						<Payment_Related_Information>For reducing a cost</Payment_Related_Information>
						<Addenda_Sequence_Number>2</Addenda_Sequence_Number>
						<Entry_Detail_Sequence_Number>106443</Entry_Detail_Sequence_Number>
					</Addenda_for_Remittance_Information>
					<Addenda_for_Foreign_Correspondent_Bank_Information>
						<Record_Type_Code>7</Record_Type_Code>
						<Addenda_Type_Code>18</Addenda_Type_Code>
						<Foreign_Correspondent_Bank_Name>MAYBANK</Foreign_Correspondent_Bank_Name>	<Foreign_Correspondent_Bank_Identification_Number_Qualifier>02</Foreign_Correspondent_Bank_Identification_Number_Qualifier>	<Foreign_Correspondent_Bank_Identification_Number>MBBEMYKLXXX</Foreign_Correspondent_Bank_Identification_Number>
						<Foreign_Correspondent_Bank_Branch_Country_Code>MY</Foreign_Correspondent_Bank_Branch_Country_Code>
						<Addenda_Sequence_Number>1</Addenda_Sequence_Number>
						<Entry_Detail_Sequence_Number>106443</Entry_Detail_Sequence_Number>
					</Addenda_for_Foreign_Correspondent_Bank_Information>
					<Addenda_for_Foreign_Correspondent_Bank_Information>
						<Record_Type_Code>7</Record_Type_Code>
						<Addenda_Type_Code>18</Addenda_Type_Code>
						<Foreign_Correspondent_Bank_Name>STANDARD CHARTERED BANK MALAYSIA</Foreign_Correspondent_Bank_Name>	<Foreign_Correspondent_Bank_Identification_Number_Qualifier>02</Foreign_Correspondent_Bank_Identification_Number_Qualifier>	<Foreign_Correspondent_Bank_Identification_Number>SCBLMYKXXXX</Foreign_Correspondent_Bank_Identification_Number>
						<Foreign_Correspondent_Bank_Branch_Country_Code>MY</Foreign_Correspondent_Bank_Branch_Country_Code>
						<Addenda_Sequence_Number>2</Addenda_Sequence_Number>
						<Entry_Detail_Sequence_Number>106443</Entry_Detail_Sequence_Number>
					</Addenda_for_Foreign_Correspondent_Bank_Information>]]>
					</any>
						</Envlp>
					</SplmtryData>
			</DrctDbtTxInf>
			
			<DrctDbtTxInf>
				<PmtId>
					<EndToEndId>000099881</EndToEndId>
				</PmtId>
				<InstdAmt Ccy="USD">550</InstdAmt>
				<DbtrAgt>
					<FinInstnId>
						<ClrSysMmbId>
							<ClrSysId>
								<Cd>USABA</Cd>

							</ClrSysId>
							<MmbId>021000021</MmbId>
						</ClrSysMmbId>
						<Nm>The finest federal credit union </Nm>
					</FinInstnId>
				</DbtrAgt>
				<Dbtr>
					<Nm>RK company</Nm>
				</Dbtr>
				<DbtrAcct>
					<Id>
						<Othr>
							<Id>123456</Id>
						</Othr>
					</Id>
					<Tp>
						<Cd>CACC</Cd>
					</Tp>
					<Nm>RK</Nm>
				</DbtrAcct>
				<RmtInf>
					<Ustrd>Payment Related Information 1 from Addenda for Remittance Information</Ustrd>
					<Ustrd>Payment Related Information 2 from Addenda for Remittance Information</Ustrd>
				</RmtInf>
				<SplmtryData>
						<PlcAndNm>Foreign_Exchange_Indicator</PlcAndNm>
						<Envlp>
							<any>FV</any>
						</Envlp>
					</SplmtryData>
					<SplmtryData>
						<PlcAndNm>Foreign_Exchange_Reference_Indicator</PlcAndNm>
						<Envlp>
							<any>1</any>
						</Envlp>
					</SplmtryData>
					<SplmtryData>
						<PlcAndNm>Foreign_Exchange_Reference</PlcAndNm>
						<Envlp>
							<any>30.2</any>
						</Envlp>
					</SplmtryData>
					<SplmtryData>
						<PlcAndNm>ISO_Destination_Country_Code</PlcAndNm>
						<Envlp>
							<any>MY</any>
						</Envlp>
					</SplmtryData>
					<SplmtryData>
						<PlcAndNm>ISO_Originating_Currency_Code</PlcAndNm>
						<Envlp>
							<any>USD</any>
						</Envlp>
					</SplmtryData>
					<SplmtryData>
						<PlcAndNm>ISO_Destination_Currency_Code</PlcAndNm>
						<Envlp>
							<any>MYR</any>
						</Envlp>
					</SplmtryData>
					<SplmtryData>
						<PlcAndNm>Secondary_OFAC_Screening_Indicator</PlcAndNm>
						<Envlp>
							<any>0</any>
						</Envlp>
					</SplmtryData>
					<SplmtryData>
						<PlcAndNm>IAT</PlcAndNm>
						<Envlp>
						<any>
					<![CDATA[<?xml version="1.0" encoding="UTF-8"?>
					<First_Addenda>
						<Record_Type_Code>7</Record_Type_Code>
						<Addenda_Type_Code>10</Addenda_Type_Code>
						<Transaction_Type_Code>ANN</Transaction_Type_Code>
						<Foreign_Payment_Amount>90600.0</Foreign_Payment_Amount>
						<Foreign_Trace_Number>1234567</Foreign_Trace_Number>
						<Receiving_Company_Name___Individual_Name>RAWAL SHIPPINGS</Receiving_Company_Name___Individual_Name>
						<Entry_Detail_Sequence_Number>106443</Entry_Detail_Sequence_Number>
					</First_Addenda>
					<Second_Addenda>
						<Record_Type_Code>7</Record_Type_Code>
						<Addenda_Type_Code>11</Addenda_Type_Code>
						<Originator_Name>Microsoft</Originator_Name>
						<Originator_Street_Address>RANA PRATAPSINHJI MARG STREET</Originator_Street_Address>
						<Entry_Detail_Sequence_Number>106443</Entry_Detail_Sequence_Number>
					</Second_Addenda>
					<Third_Addenda>
						<Record_Type_Code>7</Record_Type_Code>
						<Addenda_Type_Code>12</Addenda_Type_Code>
						<Originator_City___State___Province>Redmond*980526399\</Originator_City___State___Province>
						<Originator_Country___Postal_Code>USA*980526399\</Originator_Country___Postal_Code>
						<Entry_Detail_Sequence_Number>106443</Entry_Detail_Sequence_Number>
					</Third_Addenda>
					<Fourth_Addenda>
						<Record_Type_Code>7</Record_Type_Code>
						<Addenda_Type_Code>13</Addenda_Type_Code>
						<Originating_DFI_Name>Microsoft Corporation</Originating_DFI_Name>
						<Originating_DFI_Identification_Number_Qualifier>01</Originating_DFI_Identification_Number_Qualifier>
						<Originating_DFI_Identification>8529631475</Originating_DFI_Identification>
						<Originating_DFI_Branch_Country_Code>US</Originating_DFI_Branch_Country_Code>
						<Entry_Detail_Sequence_Number>106443</Entry_Detail_Sequence_Number>
					</Fourth_Addenda>
					<Fifth_Addenda>
						<Record_Type_Code>7</Record_Type_Code>
						<Addenda_Type_Code>14</Addenda_Type_Code>
						<Receiving_DFI_Name>MAY Bank</Receiving_DFI_Name>
						<Receiving_DFI_Identification_Number_Qualifier>01</Receiving_DFI_Identification_Number_Qualifier>
						<Receiving_DFI_Identification>9898989898</Receiving_DFI_Identification>
						<Receiving_DFI_Branch_Country_Code>MY</Receiving_DFI_Branch_Country_Code>
						<Entry_Detail_Sequence_Number>106443</Entry_Detail_Sequence_Number>
					</Fifth_Addenda>
					<Sixth_Addenda>
						<Record_Type_Code>7</Record_Type_Code>
						<Addenda_Type_Code>15</Addenda_Type_Code>
						<Receiver_Identification_Number>MY</Receiver_Identification_Number>
						<Receiver_Street_Address>MY</Receiver_Street_Address>
						<Entry_Detail_Sequence_Number>106443</Entry_Detail_Sequence_Number>
					</Sixth_Addenda>
					<Seventh_Addenda>
						<Record_Type_Code>7</Record_Type_Code>
						<Addenda_Type_Code>16</Addenda_Type_Code>
						<Receiver_City___State___Province>MY</Receiver_City___State___Province>
						<Receiver_Country___Postal_Code>MY</Receiver_Country___Postal_Code>
						<Entry_Detail_Sequence_Number>106443</Entry_Detail_Sequence_Number>
					</Seventh_Addenda>
					<Addenda_for_Remittance_Information>
						<Record_Type_Code>7</Record_Type_Code>
						<Addenda_Type_Code>17</Addenda_Type_Code>
						<Payment_Related_Information>This is a forign payment through IAT</Payment_Related_Information>
						<Addenda_Sequence_Number>1</Addenda_Sequence_Number>
						<Entry_Detail_Sequence_Number>106443</Entry_Detail_Sequence_Number>
					</Addenda_for_Remittance_Information>
					<Addenda_for_Remittance_Information>
						<Record_Type_Code>7</Record_Type_Code>
						<Addenda_Type_Code>17</Addenda_Type_Code>
						<Payment_Related_Information>For reducing a cost</Payment_Related_Information>
						<Addenda_Sequence_Number>2</Addenda_Sequence_Number>
						<Entry_Detail_Sequence_Number>106443</Entry_Detail_Sequence_Number>
					</Addenda_for_Remittance_Information>
					<Addenda_for_Foreign_Correspondent_Bank_Information>
						<Record_Type_Code>7</Record_Type_Code>
						<Addenda_Type_Code>18</Addenda_Type_Code>
						<Foreign_Correspondent_Bank_Name>MAYBANK</Foreign_Correspondent_Bank_Name>	<Foreign_Correspondent_Bank_Identification_Number_Qualifier>02</Foreign_Correspondent_Bank_Identification_Number_Qualifier>	<Foreign_Correspondent_Bank_Identification_Number>MBBEMYKLXXX</Foreign_Correspondent_Bank_Identification_Number>
						<Foreign_Correspondent_Bank_Branch_Country_Code>MY</Foreign_Correspondent_Bank_Branch_Country_Code>
						<Addenda_Sequence_Number>1</Addenda_Sequence_Number>
						<Entry_Detail_Sequence_Number>106443</Entry_Detail_Sequence_Number>
					</Addenda_for_Foreign_Correspondent_Bank_Information>
					<Addenda_for_Foreign_Correspondent_Bank_Information>
						<Record_Type_Code>7</Record_Type_Code>
						<Addenda_Type_Code>18</Addenda_Type_Code>
						<Foreign_Correspondent_Bank_Name>STANDARD CHARTERED BANK MALAYSIA</Foreign_Correspondent_Bank_Name>	<Foreign_Correspondent_Bank_Identification_Number_Qualifier>02</Foreign_Correspondent_Bank_Identification_Number_Qualifier>	<Foreign_Correspondent_Bank_Identification_Number>SCBLMYKXXXX</Foreign_Correspondent_Bank_Identification_Number>
						<Foreign_Correspondent_Bank_Branch_Country_Code>MY</Foreign_Correspondent_Bank_Branch_Country_Code>
						<Addenda_Sequence_Number>2</Addenda_Sequence_Number>
						<Entry_Detail_Sequence_Number>106443</Entry_Detail_Sequence_Number>
					</Addenda_for_Foreign_Correspondent_Bank_Information>]]>
					</any>
						</Envlp>
					</SplmtryData>
			</DrctDbtTxInf>
		</PmtInf>
	</CstmrDrctDbtInitn>
</Document>